%!PS-Adobe-2.0 EPSF-2.0
%% This is a Stata generated postscript file
%%BoundingBox: 0 0 396 288
%%HiResBoundingBox: 0.000 0.000 396.000 288.000
%%DocumentNeededResources: font Helvetica
/xratio 0.012375 def
/yratio 0.012375 def
/Sbgfill {
	/y1 exch def
	/x1 exch def
	/y0 exch def
	/x0 exch def
	x0 y0 moveto
	x0 y1 lineto x1 y1 lineto x1 y0 lineto x0 y0 lineto
	fill
} def
/Spt {
	yratio mul
	/yp exch def
	xratio mul
	/xp exch def
	Slrgb setrgbcolor
	newpath
	xp yp moveto
	xp Slw add yp
	lineto
	currentlinecap
	1 setlinecap
	stroke
	setlinecap
} def
/Sln {
	yratio mul
	/y1p exch def
	xratio mul
	/x1p exch def
	yratio mul
	/y0p exch def
	xratio mul
	/x0p exch def
	Slw setlinewidth
	Slrgb setrgbcolor
	x0p y0p M x1p y1p lineto S
} def
/Scrv {
	yratio mul
	/y3p exch def
	xratio mul
	/x3p exch def
	yratio mul
	/y2p exch def
	xratio mul
	/x2p exch def
	yratio mul
	/y1p exch def
	xratio mul
	/x1p exch def
	Slw setlinewidth
	Slrgb setrgbcolor
	x1p y1p x2p y2p x3p y3p curveto
	stroke
} def
/Stxtl {
	/sp exch def
	yratio mul
	/sizep exch def
	dup
	/anglep exch def
	0 exch sub
	/angle2p exch def
	yratio mul
	/y0p exch def
	xratio mul
	/x0p exch def
	Strgb setrgbcolor
	x0p y0p M anglep rotate sizep fntsize sp show stroke angle2p rotate
} def
/Stxtc {
	/sp exch def
	yratio mul
	/sizep exch def
	dup
	/anglep exch def
	0 exch sub
	/angle2p exch def
	yratio mul
	/y0p exch def
	xratio mul
	/x0p exch def
	Strgb setrgbcolor
	x0p y0p M anglep rotate sizep fntsize sp stringwidth exch -2 div exch rm sp show stroke angle2p rotate
} def
/Stxtr {
	/sp exch def
	yratio mul
	/sizep exch def
	dup
	/anglep exch def
	0 exch sub
	/angle2p exch def
	yratio mul
	/y0p exch def
	xratio mul
	/x0p exch def
	Strgb setrgbcolor
	x0p y0p M anglep rotate sizep fntsize sp stringwidth 1 index -1 mul exch rm pop sp show stroke angle2p rotate
} def
/Srect {
	/sfill exch def
	yratio mul
	/y1 exch def
	xratio mul
	/x1 exch def
	yratio mul
	/y0 exch def
	xratio mul
	/x0 exch def
	sfill 1 eq {
		Ssrgb setrgbcolor
		x0 y0 moveto
		x0 y1 lineto x1 y1 lineto x1 y0 lineto x0 y0 lineto
		fill
	} if
	Slw setlinewidth
	Slrgb setrgbcolor
	x0 y0 moveto
	x0 y1 lineto x1 y1 lineto x1 y0 lineto x0 y0 lineto
	stroke
} def
/Sellipse {
	/sfill exch def
	yratio mul
	/yrad exch def
	xratio mul
	/xrad exch def
	yratio mul
	/y exch def
	xratio mul
	/x exch def
	sfill 1 eq {
		Ssrgb setrgbcolor
		/savematrix matrix currentmatrix def
		x y translate
		xrad yrad scale
		0 0 1 0 360 arc
		savematrix setmatrix
		fill
	} if
	Slw setlinewidth
	Slrgb setrgbcolor
		/savematrix matrix currentmatrix def
		x y translate
		xrad yrad scale
		0 0 1 0 360 arc
		savematrix setmatrix
	stroke
} def
/Stri {
	/sfill exch def
	xratio mul
	/r exch def
	yratio mul
	/y0 exch def
	xratio mul
	/x0 exch def
	/xcen x0 def
	y0 r add
	/ytop exch def
	r 2 div
	y0 exch sub
	/ybot exch def
	r 3 sqrt 2 div mul dup
	xcen exch sub
	/xleft exch def
	xcen add
	/xright exch def
	sfill 1 eq {
		Ssrgb setrgbcolor
		xcen ytop moveto xright ybot lineto xleft ybot lineto xcen ytop lineto fill
	} if
	Slw setlinewidth
	Slrgb setrgbcolor
	xcen ytop moveto xright ybot lineto xleft ybot lineto xcen ytop lineto stroke
} def
/Soldtri {
	/sfill exch def
	xratio mul
	/r exch def
	yratio mul
	/y0 exch def
	xratio mul
	/x0 exch def
	x0 r sub
	/x1 exch def
	y0 r sub
	/y1 exch def
	x0 r add
	/x2 exch def
	y0 r sub
	/y2 exch def
	/x3 x0 def
	y0 r add
	/y3 exch def
	sfill 1 eq {
		Ssrgb setrgbcolor
		x1 y1 moveto x2 y2 lineto x3 y3 lineto x1 y1 lineto fill
	} if
	Slw setlinewidth
	Slrgb setrgbcolor
	x1 y1 moveto x2 y2 lineto x3 y3 lineto x1 y1 lineto stroke
} def
/Sdia {
	/sfill exch def
	xratio mul
	/r exch def
	yratio mul
	/y exch def
	xratio mul
	/x exch def
	x r sub
	/x0 exch def
	/y0 y def
	/x1 x def
	y r sub
	/y1 exch def
	x r add
	/x2 exch def
	/y2 y def
	/x3 x def
	y r add
	/y3 exch def
	sfill 1 eq  {
		Ssrgb setrgbcolor
		x0 y0 moveto x1 y1 lineto x2 y2 lineto x3 y3 lineto x0 y0 lineto fill
	} if
	Slw setlinewidth
	Slrgb setrgbcolor
	x0 y0 moveto x1 y1 lineto x2 y2 lineto x3 y3 lineto x0 y0 lineto stroke
} def
/Scc {
	/sfill exch def
	xratio mul
	/r0 exch def
	yratio mul
	/y0 exch def
	xratio mul
	/x0 exch def
	sfill 1 eq {
		Ssrgb setrgbcolor
		x0 y0 r0 0 360 arc fill
	} if
	Slw setlinewidth
	Slrgb setrgbcolor
	x0 y0 r0 0 360 arc stroke
} def
/Spie {
	/sfill exch def
	/a1 exch def
	/a0 exch def
	xratio mul
	/r exch def
	yratio mul
	/y exch def
	xratio mul
	/x exch def
	sfill 1 eq {
		Ssrgb setrgbcolor
		newpath x y moveto x y r a0 a1 arc closepath
		fill
	} if
	Slw setlinewidth
	Slrgb setrgbcolor
	newpath x y moveto x y r a0 a1 arc closepath
	stroke
} def
/Splu {
	xratio mul
	/r exch def
	yratio mul
	/y exch def
	xratio mul
	/x exch def
	x r sub
	/x0 exch def
	x r add
	/x1 exch def
	x0 y M x1 y L
	y r sub
	/y0 exch def
	y r add
	/y1 exch def
	x y0 M x y1 L
} def
/Scro {
	xratio mul
	/r exch def
	yratio mul
	/y exch def
	xratio mul
	/x exch def
	x r sub
	/x0 exch def
	y r sub
	/y0 exch def
	x r add
	/x1 exch def
	y r add
	/y1 exch def
	x0 y0 M x1 y1 L
	x r add
	/x0 exch def
	y r sub
	/y0 exch def
	x r sub
	/x1 exch def
	y r add
	/y1 exch def
	x0 y0 M x1 y1 L
} def
/Sm {
	yratio mul
	/y exch def
	xratio mul
	/x exch def
	x y M
} def
/Sl {
	yratio mul
	/y exch def
	xratio mul
	/x exch def
	x y L
} def
/SPl {
	yratio mul
	/y exch def
	xratio mul
	/x exch def
	x y PL
} def
/Lcs {
	currentlinecap
	1 setlinecap
} def
/Lcr {
	setlinecap
} def
/Sbp {
	newpath
} def
/Sep {
	/sfill exch def
	closepath
	sfill 1 eq  {
		Ssrgb setrgbcolor
		gsave
		fill
		grestore
	} if
	Slw setlinewidth
	Slrgb setrgbcolor
	Lcs
	stroke
	Lcr
} def
/cp {currentpoint} def 
/M {moveto} def 
/rm {rmoveto} def 
/S {stroke} def 
/L {Slw setlinewidth Slrgb setrgbcolor lineto Lcs S Lcr} def 
/PL {Slw setlinewidth Slrgb setrgbcolor lineto} def 
/MF-Helvetica {
  /newfontname exch def
  /fontname exch def
  /fontdict fontname findfont def
  /newfont fontdict maxlength dict def
  fontdict {
  exch dup /FID eq {pop pop} {exch newfont 3 1 roll put} ifelse
  } forall
  newfont /FontName newfontname put
  newfont /Encoding ISOLatin1Encoding put
  newfontname newfont definefont pop
} def
/Helvetica /Helvetica-0 MF-Helvetica
/Slw 0.120 def
0.918 0.949 0.953 setrgbcolor
0 0 396.000 288.000 Sbgfill
/Slrgb {1.000 1.000 1.000} def
/Strgb {1.000 1.000 1.000} def
/Ssrgb {1.000 1.000 1.000} def
/Ssrgb {0.918 0.949 0.953} def
/Slw 0.576 def
/Slrgb {0.918 0.949 0.953} def
0 0 31999 23272 1 Srect
/Ssrgb {1.000 1.000 1.000} def
/Slrgb {1.000 1.000 1.000} def
2350 8940 31184 21047 1 Srect
/Slrgb {0.000 0.000 0.000} def
/Strgb {0.000 0.000 0.000} def
/Slw 0.864 def
/Slrgb {0.918 0.949 0.953} def
2350 12016 31184 12016 Sln
/Slw 0.576 def
/Slrgb {0.000 0.000 0.000} def
/Slw 0.864 def
/Slrgb {0.918 0.949 0.953} def
2350 15923 31184 15923 Sln
/Slw 0.576 def
/Slrgb {0.000 0.000 0.000} def
/Slw 0.864 def
/Slrgb {0.918 0.949 0.953} def
2350 19830 31184 19830 Sln
/Slw 0.576 def
/Slrgb {0.000 0.000 0.000} def
/Slw 0.864 def
/Slrgb {0.102 0.278 0.435} def
2861 9451 Sm
2963 9480 Sl
2963 9480 Sm
3065 9508 Sl
3065 9508 Sm
3167 9752 Sl
3167 9752 Sm
3269 9772 Sl
3269 9772 Sm
3371 9795 Sl
3371 9795 Sm
3472 9824 Sl
3472 9824 Sm
3574 9850 Sl
3574 9850 Sm
3676 9878 Sl
3676 9878 Sm
3778 9904 Sl
3778 9904 Sm
3880 9934 Sl
3880 9934 Sm
3982 9970 Sl
3982 9970 Sm
4084 10006 Sl
4084 10006 Sm
4186 10037 Sl
4186 10037 Sm
4287 10066 Sl
4287 10066 Sm
4389 10094 Sl
4389 10094 Sm
4491 10115 Sl
4491 10115 Sm
4593 10137 Sl
4593 10137 Sm
4695 10163 Sl
4695 10163 Sm
4797 10189 Sl
4797 10189 Sm
4899 10219 Sl
4899 10219 Sm
5001 10247 Sl
5001 10247 Sm
5102 10280 Sl
5102 10280 Sm
5204 10317 Sl
5204 10317 Sm
5306 10355 Sl
5306 10355 Sm
5408 10386 Sl
5408 10386 Sm
5510 10413 Sl
5510 10413 Sm
5612 10444 Sl
5612 10444 Sm
5714 10466 Sl
5714 10466 Sm
5816 10493 Sl
5816 10493 Sm
5917 10522 Sl
5917 10522 Sm
6019 10551 Sl
6019 10551 Sm
6121 10582 Sl
6121 10582 Sm
6223 10614 Sl
6223 10614 Sm
6325 10652 Sl
6325 10652 Sm
4084 10006 Sl
4084 10006 Sm
4186 10037 Sl
4186 10037 Sm
4287 10066 Sl
4287 10066 Sm
4389 10094 Sl
4389 10094 Sm
4491 10115 Sl
4491 10115 Sm
4593 10137 Sl
4593 10137 Sm
4695 10163 Sl
4695 10163 Sm
4797 10189 Sl
4797 10189 Sm
4899 10219 Sl
4899 10219 Sm
5001 10247 Sl
5001 10247 Sm
5102 10280 Sl
5102 10280 Sm
5204 10317 Sl
5204 10317 Sm
5306 10355 Sl
5306 10355 Sm
5408 10386 Sl
5408 10386 Sm
5510 10413 Sl
5510 10413 Sm
5612 10444 Sl
5612 10444 Sm
5714 10466 Sl
5714 10466 Sm
5816 10493 Sl
5816 10493 Sm
5917 10522 Sl
5917 10522 Sm
6019 10551 Sl
6019 10551 Sm
6121 10582 Sl
6121 10582 Sm
6223 10614 Sl
6223 10614 Sm
6325 10652 Sl
6325 10652 Sm
6427 10693 Sl
6427 10693 Sm
6529 10735 Sl
6529 10735 Sm
6630 10770 Sl
6630 10770 Sm
6732 10801 Sl
6732 10801 Sm
6834 10836 Sl
6834 10836 Sm
6936 10865 Sl
6936 10865 Sm
7038 10892 Sl
7038 10892 Sm
7140 10921 Sl
7140 10921 Sm
7242 10951 Sl
7242 10951 Sm
7344 10984 Sl
7344 10984 Sm
7445 11016 Sl
7445 11016 Sm
7547 11051 Sl
7547 11051 Sm
5306 10355 Sl
5306 10355 Sm
5408 10386 Sl
5408 10386 Sm
5510 10413 Sl
5510 10413 Sm
5612 10444 Sl
5612 10444 Sm
5714 10466 Sl
5714 10466 Sm
5816 10493 Sl
5816 10493 Sm
5917 10522 Sl
5917 10522 Sm
6019 10551 Sl
6019 10551 Sm
6121 10582 Sl
6121 10582 Sm
6223 10614 Sl
6223 10614 Sm
6325 10652 Sl
6325 10652 Sm
6427 10693 Sl
6427 10693 Sm
6529 10735 Sl
6529 10735 Sm
6630 10770 Sl
6630 10770 Sm
6732 10801 Sl
6732 10801 Sm
6834 10836 Sl
6834 10836 Sm
6936 10865 Sl
6936 10865 Sm
7038 10892 Sl
7038 10892 Sm
7140 10921 Sl
7140 10921 Sm
7242 10951 Sl
7242 10951 Sm
7344 10984 Sl
7344 10984 Sm
7445 11016 Sl
7445 11016 Sm
7547 11051 Sl
7547 11051 Sm
7649 11090 Sl
7649 11090 Sm
7751 11126 Sl
7751 11126 Sm
7853 11161 Sl
7853 11161 Sm
7955 11194 Sl
7955 11194 Sm
8057 11225 Sl
8057 11225 Sm
8159 11252 Sl
8159 11252 Sm
8260 11276 Sl
8260 11276 Sm
8362 11305 Sl
8362 11305 Sm
8464 11334 Sl
8464 11334 Sm
8566 11370 Sl
8566 11370 Sm
8668 11402 Sl
8668 11402 Sm
8770 11438 Sl
8770 11438 Sm
8872 11478 Sl
8872 11478 Sm
8974 11514 Sl
8974 11514 Sm
9075 11548 Sl
9075 11548 Sm
9177 11579 Sl
9177 11579 Sm
6529 10735 Sl
6529 10735 Sm
6630 10770 Sl
6630 10770 Sm
6732 10801 Sl
6732 10801 Sm
6834 10836 Sl
6834 10836 Sm
6936 10865 Sl
6936 10865 Sm
7038 10892 Sl
7038 10892 Sm
7140 10921 Sl
7140 10921 Sm
7242 10951 Sl
7242 10951 Sm
7344 10984 Sl
7344 10984 Sm
7445 11016 Sl
7445 11016 Sm
7547 11051 Sl
7547 11051 Sm
7649 11090 Sl
7649 11090 Sm
7751 11126 Sl
7751 11126 Sm
7853 11161 Sl
7853 11161 Sm
7955 11194 Sl
7955 11194 Sm
8057 11225 Sl
8057 11225 Sm
8159 11252 Sl
8159 11252 Sm
8260 11276 Sl
8260 11276 Sm
8362 11305 Sl
8362 11305 Sm
8464 11334 Sl
8464 11334 Sm
8566 11370 Sl
8566 11370 Sm
8668 11402 Sl
8668 11402 Sm
8770 11438 Sl
8770 11438 Sm
8872 11478 Sl
8872 11478 Sm
8974 11514 Sl
8974 11514 Sm
9075 11548 Sl
9075 11548 Sm
9177 11579 Sl
9177 11579 Sm
9279 11577 Sl
9279 11577 Sm
9381 11603 Sl
9381 11603 Sm
9483 11626 Sl
9483 11626 Sm
9585 11654 Sl
9585 11654 Sm
9687 11681 Sl
9687 11681 Sm
9788 11713 Sl
9788 11713 Sm
9890 11745 Sl
9890 11745 Sm
9992 11781 Sl
9992 11781 Sm
10094 11821 Sl
10094 11821 Sm
10196 11858 Sl
10196 11858 Sm
10298 11890 Sl
10298 11890 Sm
10400 11920 Sl
10400 11920 Sm
10400 11920 Sl
10400 11920 Sm
10502 11944 Sl
10502 11944 Sm
10603 11971 Sl
10603 11971 Sm
10705 12000 Sl
10705 12000 Sm
10807 12035 Sl
10807 12035 Sm
10909 12070 Sl
10909 12070 Sm
11011 12105 Sl
11011 12105 Sm
11113 12141 Sl
11113 12141 Sm
11215 12181 Sl
11215 12181 Sm
11317 12223 Sl
11317 12223 Sm
11418 12264 Sl
11418 12264 Sm
11520 12301 Sl
11520 12301 Sm
11622 12335 Sl
11622 12335 Sm
11724 12462 Sl
11724 12462 Sm
11826 12482 Sl
11826 12482 Sm
11928 12507 Sl
11928 12507 Sm
12030 12538 Sl
12030 12538 Sm
12132 12569 Sl
12132 12569 Sm
12233 12602 Sl
12233 12602 Sm
12335 12634 Sl
12335 12634 Sm
12437 12673 Sl
12437 12673 Sm
12539 12713 Sl
12539 12713 Sm
12641 12751 Sl
12641 12751 Sm
12743 12785 Sl
12743 12785 Sm
12845 12816 Sl
12845 12816 Sm
12946 12844 Sl
12946 12844 Sm
13048 12875 Sl
13048 12875 Sm
13150 12904 Sl
13150 12904 Sm
13252 12940 Sl
13252 12940 Sm
13354 12973 Sl
13354 12973 Sm
13456 13009 Sl
13456 13009 Sm
13558 13045 Sl
13558 13045 Sm
13660 13086 Sl
13660 13086 Sm
13761 13129 Sl
13761 13129 Sm
13863 13172 Sl
13863 13172 Sm
13965 13208 Sl
13965 13208 Sm
14067 13240 Sl
14067 13240 Sm
14169 13328 Sl
14169 13328 Sm
14271 13358 Sl
14271 13358 Sm
14373 13390 Sl
14373 13390 Sm
14475 13429 Sl
14475 13429 Sm
14576 13466 Sl
14576 13466 Sm
14678 13506 Sl
14678 13506 Sm
14780 13545 Sl
14780 13545 Sm
14882 13586 Sl
14882 13586 Sm
14984 13630 Sl
14984 13630 Sm
15086 13673 Sl
15086 13673 Sm
15188 13708 Sl
15188 13708 Sm
15289 13741 Sl
15289 13741 Sm
15391 14244 Sl
15391 14244 Sm
15493 14277 Sl
15493 14277 Sm
16308 14634 Sl
16308 14634 Sm
16410 14661 Sl
16410 14661 Sm
16512 14699 Sl
16512 14699 Sm
16614 14729 Sl
16614 14729 Sm
16716 14772 Sl
16716 14772 Sm
16818 14810 Sl
16818 14810 Sm
16919 14853 Sl
16919 14853 Sm
17021 14893 Sl
17021 14893 Sm
17123 14936 Sl
17123 14936 Sm
17225 14981 Sl
17225 14981 Sm
17327 15028 Sl
17327 15028 Sm
17429 15076 Sl
17429 15076 Sm
17531 15122 Sl
17531 15122 Sm
17633 15164 Sl
17633 15164 Sm
17734 15203 Sl
17734 15203 Sm
17836 15240 Sl
17836 15240 Sm
17938 15271 Sl
17938 15271 Sm
18040 15302 Sl
18040 15302 Sm
18142 15338 Sl
18142 15338 Sm
18244 15375 Sl
18244 15375 Sm
18346 15416 Sl
18346 15416 Sm
18447 15460 Sl
18447 15460 Sm
18549 15506 Sl
18549 15506 Sm
18651 15553 Sl
18651 15553 Sm
18753 15598 Sl
18753 15598 Sm
18855 15639 Sl
18855 15639 Sm
18957 15677 Sl
18957 15677 Sm
19059 15902 Sl
19059 15902 Sm
19161 15945 Sl
19161 15945 Sm
19262 15984 Sl
19262 15984 Sm
19364 16028 Sl
19364 16028 Sm
19466 16073 Sl
19466 16073 Sm
19568 16121 Sl
19568 16121 Sm
19670 16167 Sl
19670 16167 Sm
19772 16217 Sl
19772 16217 Sm
19874 16270 Sl
19874 16270 Sm
19976 16321 Sl
19976 16321 Sm
20077 16368 Sl
20077 16368 Sm
20179 16413 Sl
20179 16413 Sm
19976 16321 Sl
19976 16321 Sm
20077 16368 Sl
20077 16368 Sm
20179 16413 Sl
20179 16413 Sm
20281 16345 Sl
20281 16345 Sm
20383 16383 Sl
20383 16383 Sm
20485 16421 Sl
20485 16421 Sm
20587 16461 Sl
20587 16461 Sm
20689 16502 Sl
20689 16502 Sm
20791 16547 Sl
20791 16547 Sm
20892 16591 Sl
20892 16591 Sm
20994 16641 Sl
20994 16641 Sm
21096 16692 Sl
21096 16692 Sm
21198 16741 Sl
21198 16741 Sm
21300 16786 Sl
21300 16786 Sm
21402 16829 Sl
21402 16829 Sm
21504 16867 Sl
21504 16867 Sm
21605 16907 Sl
21605 16907 Sm
21707 16945 Sl
21707 16945 Sm
21809 16985 Sl
21809 16985 Sm
21911 17030 Sl
21911 17030 Sm
22013 17077 Sl
22013 17077 Sm
22115 17124 Sl
22115 17124 Sm
22217 17177 Sl
22217 17177 Sm
22319 17230 Sl
22319 17230 Sm
22420 17282 Sl
22420 17282 Sm
22522 17330 Sl
22522 17330 Sm
22624 17373 Sl
22624 17373 Sm
22726 17398 Sl
22726 17398 Sm
22828 17439 Sl
22828 17439 Sm
22930 17480 Sl
22930 17480 Sm
23032 17524 Sl
23032 17524 Sm
23134 17569 Sl
23134 17569 Sm
23235 17616 Sl
23235 17616 Sm
23337 17663 Sl
23337 17663 Sm
23439 17713 Sl
23439 17713 Sm
23541 17763 Sl
23541 17763 Sm
23643 17812 Sl
23643 17812 Sm
23745 17857 Sl
23745 17857 Sm
23847 17897 Sl
23847 17897 Sm
23949 18003 Sl
23949 18003 Sm
24050 18039 Sl
24050 18039 Sm
24152 18078 Sl
24152 18078 Sm
24254 18121 Sl
24254 18121 Sm
24356 18165 Sl
24356 18165 Sm
24458 18211 Sl
24458 18211 Sm
24560 18258 Sl
24560 18258 Sm
24662 18308 Sl
24662 18308 Sm
24763 18357 Sl
24763 18357 Sm
24865 18406 Sl
24865 18406 Sm
24967 18450 Sl
24967 18450 Sm
25069 18492 Sl
25069 18492 Sm
25578 18541 Sl
25578 18541 Sm
25680 18584 Sl
25680 18584 Sm
25782 18631 Sl
25782 18631 Sm
25884 18678 Sl
25884 18678 Sm
25986 18728 Sl
25986 18728 Sm
26088 18777 Sl
26088 18777 Sm
26190 18819 Sl
26190 18819 Sm
26292 18859 Sl
26292 18859 Sm
26393 18802 Sl
26393 18802 Sm
26495 18836 Sl
26495 18836 Sm
26597 18869 Sl
26597 18869 Sm
26699 18906 Sl
26699 18906 Sm
26801 18941 Sl
26801 18941 Sm
26903 18981 Sl
26903 18981 Sm
27005 19023 Sl
27005 19023 Sm
27107 19065 Sl
27107 19065 Sm
27208 19111 Sl
27208 19111 Sm
27310 19155 Sl
27310 19155 Sm
27412 19193 Sl
27412 19193 Sm
27514 19228 Sl
27514 19228 Sm
27616 19210 Sl
27616 19210 Sm
27718 19243 Sl
27718 19243 Sm
27820 19274 Sl
27820 19274 Sm
27921 19308 Sl
27921 19308 Sm
28023 19341 Sl
28023 19341 Sm
28125 19378 Sl
28125 19378 Sm
28227 19417 Sl
28227 19417 Sm
28329 19458 Sl
28329 19458 Sm
28431 19502 Sl
28431 19502 Sm
28533 19542 Sl
28533 19542 Sm
28635 19578 Sl
28635 19578 Sm
28736 19612 Sl
28736 19612 Sm
28838 19576 Sl
28838 19576 Sm
28940 19605 Sl
28940 19605 Sm
29042 19634 Sl
29042 19634 Sm
29144 19662 Sl
29144 19662 Sm
29246 19695 Sl
29246 19695 Sm
29348 19729 Sl
29348 19729 Sm
29450 19765 Sl
29450 19765 Sm
29551 19804 Sl
29551 19804 Sm
29653 19843 Sl
29653 19843 Sm
29755 19882 Sl
29755 19882 Sm
29857 19915 Sl
29857 19915 Sm
29959 19943 Sl
29959 19943 Sm
30061 20273 Sl
30061 20273 Sm
30163 20305 Sl
30163 20305 Sm
30265 20338 Sl
30265 20338 Sm
30366 20373 Sl
30366 20373 Sm
30468 20409 Sl
30468 20409 Sm
30570 20446 Sl
30570 20446 Sm
30672 20484 Sl
/Slrgb {0.565 0.208 0.231} def
2861 9621 Sm
2963 9649 Sl
2963 9649 Sm
3065 9677 Sl
3065 9677 Sm
3167 9703 Sl
3167 9703 Sm
3269 9736 Sl
3269 9736 Sm
3371 9769 Sl
3371 9769 Sm
3472 9795 Sl
3472 9795 Sm
3574 9832 Sl
3574 9832 Sm
3676 9863 Sl
3676 9863 Sm
3778 9894 Sl
3778 9894 Sm
3880 9933 Sl
3880 9933 Sm
3982 9961 Sl
3982 9961 Sm
4084 9981 Sl
4084 9981 Sm
4186 10011 Sl
4186 10011 Sm
4287 10060 Sl
4287 10060 Sm
4389 10077 Sl
4389 10077 Sm
4491 10094 Sl
4491 10094 Sm
4593 10143 Sl
4593 10143 Sm
4695 10161 Sl
4695 10161 Sm
4797 10179 Sl
4797 10179 Sm
4899 10217 Sl
4899 10217 Sm
5001 10222 Sl
5001 10222 Sm
5102 10252 Sl
5102 10252 Sm
5204 10266 Sl
5204 10266 Sm
5306 10297 Sl
5306 10297 Sm
5408 10315 Sl
5408 10315 Sm
5510 10344 Sl
5510 10344 Sm
5612 10371 Sl
5612 10371 Sm
5714 10382 Sl
5714 10382 Sm
5816 10417 Sl
5816 10417 Sm
5917 10446 Sl
5917 10446 Sm
6019 10477 Sl
6019 10477 Sm
6121 10493 Sl
6121 10493 Sm
6223 10541 Sl
6223 10541 Sm
6325 10551 Sl
/Slrgb {0.333 0.459 0.184} def
4084 9951 Sm
4186 9967 Sl
4186 9967 Sm
4287 10025 Sl
4287 10025 Sm
4389 10078 Sl
4389 10078 Sm
4491 10085 Sl
4491 10085 Sm
4593 10114 Sl
4593 10114 Sm
4695 10159 Sl
4695 10159 Sm
4797 10180 Sl
4797 10180 Sm
4899 10210 Sl
4899 10210 Sm
5001 10226 Sl
5001 10226 Sm
5102 10242 Sl
5102 10242 Sm
5204 10286 Sl
5204 10286 Sm
5306 10316 Sl
5306 10316 Sm
5408 10340 Sl
5408 10340 Sm
5510 10398 Sl
5510 10398 Sm
5612 10401 Sl
5612 10401 Sm
5714 10416 Sl
5714 10416 Sm
5816 10454 Sl
5816 10454 Sm
5917 10490 Sl
5917 10490 Sm
6019 10517 Sl
6019 10517 Sm
6121 10507 Sl
6121 10507 Sm
6223 10488 Sl
6223 10488 Sm
6325 10469 Sl
6325 10469 Sm
6427 10457 Sl
6427 10457 Sm
6529 10592 Sl
6529 10592 Sm
6630 10737 Sl
6630 10737 Sm
6732 10886 Sl
6732 10886 Sm
6834 11019 Sl
6834 11019 Sm
6936 11053 Sl
6936 11053 Sm
7038 11081 Sl
7038 11081 Sm
7140 11113 Sl
7140 11113 Sm
7242 11154 Sl
7242 11154 Sm
7344 11187 Sl
7344 11187 Sm
7445 11205 Sl
7445 11205 Sm
7547 11212 Sl
/Slrgb {0.890 0.494 0.000} def
5306 10570 Sm
5408 10588 Sl
5408 10588 Sm
5510 10596 Sl
5510 10596 Sm
5612 10623 Sl
5612 10623 Sm
5714 10640 Sl
5714 10640 Sm
5816 10684 Sl
5816 10684 Sm
5917 10732 Sl
5917 10732 Sm
6019 10756 Sl
6019 10756 Sm
6121 10788 Sl
6121 10788 Sm
6223 10798 Sl
6223 10798 Sm
6325 10820 Sl
6325 10820 Sm
6427 10856 Sl
6427 10856 Sm
6529 10902 Sl
6529 10902 Sm
6630 10933 Sl
6630 10933 Sm
6732 10980 Sl
6732 10980 Sm
6834 11008 Sl
6834 11008 Sm
6936 11019 Sl
6936 11019 Sm
7038 11058 Sl
7038 11058 Sm
7140 11084 Sl
7140 11084 Sm
7242 11105 Sl
7242 11105 Sm
7344 11148 Sl
7344 11148 Sm
7445 11183 Sl
7445 11183 Sm
7547 11197 Sl
7547 11197 Sm
7649 11243 Sl
7649 11243 Sm
7751 11275 Sl
7751 11275 Sm
7853 11311 Sl
7853 11311 Sm
7955 11348 Sl
7955 11348 Sm
8057 11406 Sl
8057 11406 Sm
8159 11449 Sl
8159 11449 Sm
8260 11446 Sl
8260 11446 Sm
8362 11504 Sl
8362 11504 Sm
8464 11511 Sl
8464 11511 Sm
8566 11551 Sl
8566 11551 Sm
8668 11592 Sl
8668 11592 Sm
8770 11615 Sl
8770 11615 Sm
8872 11651 Sl
8872 11651 Sm
8974 11695 Sl
8974 11695 Sm
9075 11732 Sl
9075 11732 Sm
9177 11793 Sl
/Slrgb {0.431 0.557 0.518} def
6529 10877 Sm
6630 10937 Sl
6630 10937 Sm
6732 10960 Sl
6732 10960 Sm
6834 10988 Sl
6834 10988 Sm
6936 11020 Sl
6936 11020 Sm
7038 11040 Sl
7038 11040 Sm
7140 11088 Sl
7140 11088 Sm
7242 11108 Sl
7242 11108 Sm
7344 11150 Sl
7344 11150 Sm
7445 11191 Sl
7445 11191 Sm
7547 11189 Sl
7547 11189 Sm
7649 11238 Sl
7649 11238 Sm
7751 11276 Sl
7751 11276 Sm
7853 11319 Sl
7853 11319 Sm
7955 11342 Sl
7955 11342 Sm
8057 11414 Sl
8057 11414 Sm
8159 11435 Sl
8159 11435 Sm
8260 11466 Sl
8260 11466 Sm
8362 11512 Sl
8362 11512 Sm
8464 11535 Sl
8464 11535 Sm
8566 11551 Sl
8566 11551 Sm
8668 11571 Sl
8668 11571 Sm
8770 11594 Sl
8770 11594 Sm
8872 11630 Sl
8872 11630 Sm
8974 11676 Sl
8974 11676 Sm
9075 11725 Sl
9075 11725 Sm
9177 11778 Sl
9177 11778 Sm
9279 11772 Sl
9279 11772 Sm
9381 11777 Sl
9381 11777 Sm
9483 11811 Sl
9483 11811 Sm
9585 11822 Sl
9585 11822 Sm
9687 11854 Sl
9687 11854 Sm
9788 11884 Sl
9788 11884 Sm
9890 11915 Sl
9890 11915 Sm
9992 11959 Sl
9992 11959 Sm
10094 11983 Sl
10094 11983 Sm
10196 12022 Sl
10196 12022 Sm
10298 12049 Sl
10298 12049 Sm
10400 12087 Sl
/Slrgb {0.757 0.020 0.204} def
10400 12062 Sm
10502 12079 Sl
10502 12079 Sm
10603 12115 Sl
10603 12115 Sm
10705 12147 Sl
10705 12147 Sm
10807 12177 Sl
10807 12177 Sm
10909 12204 Sl
10909 12204 Sm
11011 12242 Sl
11011 12242 Sm
11113 12276 Sl
11113 12276 Sm
11215 12317 Sl
11215 12317 Sm
11317 12353 Sl
11317 12353 Sm
11418 12400 Sl
11418 12400 Sm
11520 12450 Sl
11520 12450 Sm
11622 12493 Sl
11622 12493 Sm
11724 12607 Sl
11724 12607 Sm
11826 12639 Sl
11826 12639 Sm
11928 12657 Sl
11928 12657 Sm
12030 12680 Sl
12030 12680 Sm
12132 12709 Sl
12132 12709 Sm
12233 12720 Sl
12233 12720 Sm
12335 12749 Sl
12335 12749 Sm
12437 12800 Sl
12437 12800 Sm
12539 12834 Sl
12539 12834 Sm
12641 12865 Sl
12641 12865 Sm
12743 12917 Sl
12743 12917 Sm
12845 12954 Sl
12845 12954 Sm
12946 12973 Sl
12946 12973 Sm
13048 13001 Sl
13048 13001 Sm
13150 13029 Sl
13150 13029 Sm
13252 13075 Sl
13252 13075 Sm
13354 13101 Sl
13354 13101 Sm
13456 13127 Sl
13456 13127 Sm
13558 13169 Sl
13558 13169 Sm
13660 13215 Sl
13660 13215 Sm
13761 13263 Sl
13761 13263 Sm
13863 13305 Sl
13863 13305 Sm
13965 13345 Sl
13965 13345 Sm
14067 13360 Sl
14067 13360 Sm
14169 13416 Sl
14169 13416 Sm
14271 13494 Sl
14271 13494 Sm
14373 13518 Sl
14373 13518 Sm
14475 13557 Sl
14475 13557 Sm
14576 13596 Sl
14576 13596 Sm
14678 13639 Sl
14678 13639 Sm
14780 13666 Sl
14780 13666 Sm
14882 13714 Sl
14882 13714 Sm
14984 13741 Sl
14984 13741 Sm
15086 13797 Sl
15086 13797 Sm
15188 13841 Sl
15188 13841 Sm
15289 13866 Sl
15289 13866 Sm
15391 13855 Sl
15391 13855 Sm
15493 13871 Sl
/Slrgb {0.576 0.553 0.824} def
16308 14737 Sm
16410 14782 Sl
16410 14782 Sm
16512 14802 Sl
16512 14802 Sm
16614 14868 Sl
16614 14868 Sm
16716 14911 Sl
16716 14911 Sm
16818 14936 Sl
16818 14936 Sm
16919 14969 Sl
16919 14969 Sm
17021 15000 Sl
17021 15000 Sm
17123 15034 Sl
17123 15034 Sm
17225 15070 Sl
17225 15070 Sm
17327 15126 Sl
17327 15126 Sm
17429 15185 Sl
17429 15185 Sm
17531 15236 Sl
17531 15236 Sm
17633 15280 Sl
17633 15280 Sm
17734 15315 Sl
17734 15315 Sm
17836 15347 Sl
17836 15347 Sm
17938 15377 Sl
17938 15377 Sm
18040 15406 Sl
18040 15406 Sm
18142 15451 Sl
18142 15451 Sm
18244 15488 Sl
18244 15488 Sm
18346 15536 Sl
18346 15536 Sm
18447 15586 Sl
18447 15586 Sm
18549 15642 Sl
18549 15642 Sm
18651 15692 Sl
18651 15692 Sm
18753 15731 Sl
18753 15731 Sm
18855 15775 Sl
18855 15775 Sm
18957 15824 Sl
18957 15824 Sm
19059 16050 Sl
19059 16050 Sm
19161 16078 Sl
19161 16078 Sm
19262 16122 Sl
19262 16122 Sm
19364 16160 Sl
19364 16160 Sm
19466 16196 Sl
19466 16196 Sm
19568 16250 Sl
19568 16250 Sm
19670 16297 Sl
19670 16297 Sm
19772 16347 Sl
19772 16347 Sm
19874 16411 Sl
19874 16411 Sm
19976 16442 Sl
19976 16442 Sm
20077 16496 Sl
20077 16496 Sm
20179 16538 Sl
/Slrgb {0.792 0.761 0.494} def
19976 16184 Sm
20077 16247 Sl
20077 16247 Sm
20179 16289 Sl
20179 16289 Sm
20281 16335 Sl
20281 16335 Sm
20383 16384 Sl
20383 16384 Sm
20485 16430 Sl
20485 16430 Sm
20587 16473 Sl
20587 16473 Sm
20689 16526 Sl
20689 16526 Sm
20791 16567 Sl
20791 16567 Sm
20892 16606 Sl
20892 16606 Sm
20994 16660 Sl
20994 16660 Sm
21096 16711 Sl
21096 16711 Sm
21198 16760 Sl
21198 16760 Sm
21300 16806 Sl
21300 16806 Sm
21402 16842 Sl
21402 16842 Sm
21504 16876 Sl
21504 16876 Sm
21605 16914 Sl
21605 16914 Sm
21707 16956 Sl
21707 16956 Sm
21809 16996 Sl
21809 16996 Sm
21911 17037 Sl
21911 17037 Sm
22013 17091 Sl
22013 17091 Sm
22115 17145 Sl
22115 17145 Sm
22217 17202 Sl
22217 17202 Sm
22319 17256 Sl
22319 17256 Sm
22420 17299 Sl
22420 17299 Sm
22522 17335 Sl
22522 17335 Sm
22624 17385 Sl
22624 17385 Sm
22726 17409 Sl
22726 17409 Sm
22828 17450 Sl
22828 17450 Sm
22930 17493 Sl
22930 17493 Sm
23032 17537 Sl
23032 17537 Sm
23134 17587 Sl
23134 17587 Sm
23235 17625 Sl
23235 17625 Sm
23337 17671 Sl
23337 17671 Sm
23439 17721 Sl
23439 17721 Sm
23541 17777 Sl
23541 17777 Sm
23643 17830 Sl
23643 17830 Sm
23745 17876 Sl
23745 17876 Sm
23847 17909 Sl
23847 17909 Sm
23949 18030 Sl
23949 18030 Sm
24050 18066 Sl
24050 18066 Sm
24152 18104 Sl
24152 18104 Sm
24254 18137 Sl
24254 18137 Sm
24356 18173 Sl
24356 18173 Sm
24458 18236 Sl
24458 18236 Sm
24560 18287 Sl
24560 18287 Sm
24662 18334 Sl
24662 18334 Sm
24763 18392 Sl
24763 18392 Sm
24865 18467 Sl
24865 18467 Sm
24967 18500 Sl
24967 18500 Sm
25069 18540 Sl
/Slrgb {0.627 0.322 0.176} def
25578 18522 Sm
25680 18562 Sl
25680 18562 Sm
25782 18612 Sl
25782 18612 Sm
25884 18666 Sl
25884 18666 Sm
25986 18727 Sl
25986 18727 Sm
26088 18781 Sl
26088 18781 Sm
26190 18829 Sl
26190 18829 Sm
26292 18871 Sl
26292 18871 Sm
26393 18817 Sl
26393 18817 Sm
26495 18852 Sl
26495 18852 Sm
26597 18883 Sl
26597 18883 Sm
26699 18924 Sl
26699 18924 Sm
26801 18956 Sl
26801 18956 Sm
26903 19001 Sl
26903 19001 Sm
27005 19039 Sl
27005 19039 Sm
27107 19087 Sl
27107 19087 Sm
27208 19130 Sl
27208 19130 Sm
27310 19172 Sl
27310 19172 Sm
27412 19218 Sl
27412 19218 Sm
27514 19252 Sl
27514 19252 Sm
27616 19234 Sl
27616 19234 Sm
27718 19275 Sl
27718 19275 Sm
27820 19308 Sl
27820 19308 Sm
27921 19341 Sl
27921 19341 Sm
28023 19375 Sl
28023 19375 Sm
28125 19410 Sl
28125 19410 Sm
28227 19458 Sl
28227 19458 Sm
28329 19495 Sl
28329 19495 Sm
28431 19536 Sl
28431 19536 Sm
28533 19576 Sl
28533 19576 Sm
28635 19611 Sl
28635 19611 Sm
28736 19640 Sl
28736 19640 Sm
28838 19600 Sl
28838 19600 Sm
28940 19627 Sl
28940 19627 Sm
29042 19660 Sl
29042 19660 Sm
29144 19686 Sl
29144 19686 Sm
29246 19729 Sl
29246 19729 Sm
29348 19770 Sl
29348 19770 Sm
29450 19805 Sl
29450 19805 Sm
29551 19851 Sl
29551 19851 Sm
29653 19889 Sl
29653 19889 Sm
29755 19934 Sl
29755 19934 Sm
29857 19964 Sl
29857 19964 Sm
29959 19987 Sl
29959 19987 Sm
30061 20322 Sl
30061 20322 Sm
30163 20369 Sl
30163 20369 Sm
30265 20395 Sl
30265 20395 Sm
30366 20430 Sl
30366 20430 Sm
30468 20458 Sl
30468 20458 Sm
30570 20498 Sl
30570 20498 Sm
30672 20534 Sl
/Slw 0.576 def
/Slrgb {0.000 0.000 0.000} def
2350 8940 2350 21047 Sln
2350 12016 2027 12016 Sln
1623 12016 0
/Helvetica-0 findfont 808 yratio mul scalefont setfont
(200m) stringwidth pop add
2 div xratio div
dup 4 3 roll exch 90.000 cos mul sub 3 1 roll 90.000 sin mul sub 2 copy
/fntsize {/Helvetica-0 findfont exch scalefont setfont } def
90.000 808
(200m) Stxtl
(200m) stringwidth pop xratio div
dup 4 3 roll exch 90.000 cos mul add 3 1 roll 90.000 sin mul add 2 copy
pop pop pop pop
2350 15923 2027 15923 Sln
1623 15923 0
/Helvetica-0 findfont 808 yratio mul scalefont setfont
(220m) stringwidth pop add
2 div xratio div
dup 4 3 roll exch 90.000 cos mul sub 3 1 roll 90.000 sin mul sub 2 copy
/fntsize {/Helvetica-0 findfont exch scalefont setfont } def
90.000 808
(220m) Stxtl
(220m) stringwidth pop xratio div
dup 4 3 roll exch 90.000 cos mul add 3 1 roll 90.000 sin mul add 2 copy
pop pop pop pop
2350 19830 2027 19830 Sln
1623 19830 0
/Helvetica-0 findfont 808 yratio mul scalefont setfont
(240m) stringwidth pop add
2 div xratio div
dup 4 3 roll exch 90.000 cos mul sub 3 1 roll 90.000 sin mul sub 2 copy
/fntsize {/Helvetica-0 findfont exch scalefont setfont } def
90.000 808
(240m) Stxtl
(240m) stringwidth pop xratio div
dup 4 3 roll exch 90.000 cos mul add 3 1 roll 90.000 sin mul add 2 copy
pop pop pop pop
2350 8940 31184 8940 Sln
2862 8940 2862 8616 Sln
2862 7889 0
/Helvetica-0 findfont 808 yratio mul scalefont setfont
(1989m10) stringwidth pop add
2 div xratio div
dup 4 3 roll exch 0.000 cos mul sub 3 1 roll 0.000 sin mul sub 2 copy
/fntsize {/Helvetica-0 findfont exch scalefont setfont } def
0.000 808
(1989m10) Stxtl
(1989m10) stringwidth pop xratio div
dup 4 3 roll exch 0.000 cos mul add 3 1 roll 0.000 sin mul add 2 copy
pop pop pop pop
6529 8940 6529 8616 Sln
6529 7889 0
/Helvetica-0 findfont 808 yratio mul scalefont setfont
(1992m10) stringwidth pop add
2 div xratio div
dup 4 3 roll exch 0.000 cos mul sub 3 1 roll 0.000 sin mul sub 2 copy
/fntsize {/Helvetica-0 findfont exch scalefont setfont } def
0.000 808
(1992m10) Stxtl
(1992m10) stringwidth pop xratio div
dup 4 3 roll exch 0.000 cos mul add 3 1 roll 0.000 sin mul add 2 copy
pop pop pop pop
10196 8940 10196 8616 Sln
10196 7889 0
/Helvetica-0 findfont 808 yratio mul scalefont setfont
(1995m10) stringwidth pop add
2 div xratio div
dup 4 3 roll exch 0.000 cos mul sub 3 1 roll 0.000 sin mul sub 2 copy
/fntsize {/Helvetica-0 findfont exch scalefont setfont } def
0.000 808
(1995m10) Stxtl
(1995m10) stringwidth pop xratio div
dup 4 3 roll exch 0.000 cos mul add 3 1 roll 0.000 sin mul add 2 copy
pop pop pop pop
13864 8940 13864 8616 Sln
13864 7889 0
/Helvetica-0 findfont 808 yratio mul scalefont setfont
(1998m10) stringwidth pop add
2 div xratio div
dup 4 3 roll exch 0.000 cos mul sub 3 1 roll 0.000 sin mul sub 2 copy
/fntsize {/Helvetica-0 findfont exch scalefont setfont } def
0.000 808
(1998m10) Stxtl
(1998m10) stringwidth pop xratio div
dup 4 3 roll exch 0.000 cos mul add 3 1 roll 0.000 sin mul add 2 copy
pop pop pop pop
17531 8940 17531 8616 Sln
17531 7889 0
/Helvetica-0 findfont 808 yratio mul scalefont setfont
(2001m10) stringwidth pop add
2 div xratio div
dup 4 3 roll exch 0.000 cos mul sub 3 1 roll 0.000 sin mul sub 2 copy
/fntsize {/Helvetica-0 findfont exch scalefont setfont } def
0.000 808
(2001m10) Stxtl
(2001m10) stringwidth pop xratio div
dup 4 3 roll exch 0.000 cos mul add 3 1 roll 0.000 sin mul add 2 copy
pop pop pop pop
21199 8940 21199 8616 Sln
21199 7889 0
/Helvetica-0 findfont 808 yratio mul scalefont setfont
(2004m10) stringwidth pop add
2 div xratio div
dup 4 3 roll exch 0.000 cos mul sub 3 1 roll 0.000 sin mul sub 2 copy
/fntsize {/Helvetica-0 findfont exch scalefont setfont } def
0.000 808
(2004m10) Stxtl
(2004m10) stringwidth pop xratio div
dup 4 3 roll exch 0.000 cos mul add 3 1 roll 0.000 sin mul add 2 copy
pop pop pop pop
24866 8940 24866 8616 Sln
24866 7889 0
/Helvetica-0 findfont 808 yratio mul scalefont setfont
(2007m10) stringwidth pop add
2 div xratio div
dup 4 3 roll exch 0.000 cos mul sub 3 1 roll 0.000 sin mul sub 2 copy
/fntsize {/Helvetica-0 findfont exch scalefont setfont } def
0.000 808
(2007m10) Stxtl
(2007m10) stringwidth pop xratio div
dup 4 3 roll exch 0.000 cos mul add 3 1 roll 0.000 sin mul add 2 copy
pop pop pop pop
28533 8940 28533 8616 Sln
28533 7889 0
/Helvetica-0 findfont 808 yratio mul scalefont setfont
(2010m10) stringwidth pop add
2 div xratio div
dup 4 3 roll exch 0.000 cos mul sub 3 1 roll 0.000 sin mul sub 2 copy
/fntsize {/Helvetica-0 findfont exch scalefont setfont } def
0.000 808
(2010m10) Stxtl
(2010m10) stringwidth pop xratio div
dup 4 3 roll exch 0.000 cos mul add 3 1 roll 0.000 sin mul add 2 copy
pop pop pop pop
32201 8940 32201 8616 Sln
32201 7889 0
/Helvetica-0 findfont 808 yratio mul scalefont setfont
(2013m10) stringwidth pop add
2 div xratio div
dup 4 3 roll exch 0.000 cos mul sub 3 1 roll 0.000 sin mul sub 2 copy
/fntsize {/Helvetica-0 findfont exch scalefont setfont } def
0.000 808
(2013m10) Stxtl
(2013m10) stringwidth pop xratio div
dup 4 3 roll exch 0.000 cos mul add 3 1 roll 0.000 sin mul add 2 copy
pop pop pop pop
8289 1094 25246 7125 1 Srect
/Slw 0.864 def
/Slrgb {0.102 0.278 0.435} def
8638 6372 11663 6372 Sln
/Slrgb {0.565 0.208 0.231} def
17333 6372 20358 6372 Sln
/Slrgb {0.333 0.459 0.184} def
8638 5241 11663 5241 Sln
/Slrgb {0.890 0.494 0.000} def
17333 5241 20358 5241 Sln
/Slrgb {0.431 0.557 0.518} def
8638 4109 11663 4109 Sln
/Slrgb {0.757 0.020 0.204} def
17333 4109 20358 4109 Sln
/Slrgb {0.576 0.553 0.824} def
8638 2978 11663 2978 Sln
/Slrgb {0.792 0.761 0.494} def
17333 2978 20358 2978 Sln
/Slrgb {0.627 0.322 0.176} def
8638 1847 11663 1847 Sln
12148 6089 2 copy
/fntsize {/Helvetica-0 findfont exch scalefont setfont } def
0.000 808
(FRED) Stxtl
(FRED) stringwidth pop xratio div
dup 4 3 roll exch 0.000 cos mul add 3 1 roll 0.000 sin mul add 2 copy
pop pop pop pop
20843 6089 2 copy
/fntsize {/Helvetica-0 findfont exch scalefont setfont } def
0.000 808
(SIPP 1990) Stxtl
(SIPP 1990) stringwidth pop xratio div
dup 4 3 roll exch 0.000 cos mul add 3 1 roll 0.000 sin mul add 2 copy
pop pop pop pop
12148 4958 2 copy
/fntsize {/Helvetica-0 findfont exch scalefont setfont } def
0.000 808
(SIPP 1991) Stxtl
(SIPP 1991) stringwidth pop xratio div
dup 4 3 roll exch 0.000 cos mul add 3 1 roll 0.000 sin mul add 2 copy
pop pop pop pop
20843 4958 2 copy
/fntsize {/Helvetica-0 findfont exch scalefont setfont } def
0.000 808
(SIPP 1992) Stxtl
(SIPP 1992) stringwidth pop xratio div
dup 4 3 roll exch 0.000 cos mul add 3 1 roll 0.000 sin mul add 2 copy
pop pop pop pop
12148 3826 2 copy
/fntsize {/Helvetica-0 findfont exch scalefont setfont } def
0.000 808
(SIPP 1993) Stxtl
(SIPP 1993) stringwidth pop xratio div
dup 4 3 roll exch 0.000 cos mul add 3 1 roll 0.000 sin mul add 2 copy
pop pop pop pop
20843 3826 2 copy
/fntsize {/Helvetica-0 findfont exch scalefont setfont } def
0.000 808
(SIPP 1996) Stxtl
(SIPP 1996) stringwidth pop xratio div
dup 4 3 roll exch 0.000 cos mul add 3 1 roll 0.000 sin mul add 2 copy
pop pop pop pop
12148 2695 2 copy
/fntsize {/Helvetica-0 findfont exch scalefont setfont } def
0.000 808
(SIPP 2001) Stxtl
(SIPP 2001) stringwidth pop xratio div
dup 4 3 roll exch 0.000 cos mul add 3 1 roll 0.000 sin mul add 2 copy
pop pop pop pop
20843 2695 2 copy
/fntsize {/Helvetica-0 findfont exch scalefont setfont } def
0.000 808
(SIPP 2004) Stxtl
(SIPP 2004) stringwidth pop xratio div
dup 4 3 roll exch 0.000 cos mul add 3 1 roll 0.000 sin mul add 2 copy
pop pop pop pop
12148 1564 2 copy
/fntsize {/Helvetica-0 findfont exch scalefont setfont } def
0.000 808
(SIPP 2008) Stxtl
(SIPP 2008) stringwidth pop xratio div
dup 4 3 roll exch 0.000 cos mul add 3 1 roll 0.000 sin mul add 2 copy
pop pop pop pop
/Strgb {0.118 0.176 0.325} def
16767 21526 0
/Helvetica-0 findfont 1131 yratio mul scalefont setfont
(Civ. noninst. population aged 16+) stringwidth pop add
2 div xratio div
dup 4 3 roll exch 0.000 cos mul sub 3 1 roll 0.000 sin mul sub 2 copy
/fntsize {/Helvetica-0 findfont exch scalefont setfont } def
0.000 1131
(Civ. noninst. population aged 16+) Stxtl
(Civ. noninst. population aged 16+) stringwidth pop xratio div
dup 4 3 roll exch 0.000 cos mul add 3 1 roll 0.000 sin mul add 2 copy
pop pop pop pop
S showpage
%%EOF
